HUEGAIN_COEF0_RYGAIN4,              0xD960, 1,  0x29
HUEGAIN_COEF0_RYGAIN3,              0xD961, 1,  0x29
HUEGAIN_COEF0_RYGAIN2,              0xD962, 1,  0x29
HUEGAIN_COEF0_RYGAIN1,              0xD963, 1,  0x29
HUEGAIN_COEF3_BYGAIN4,              0xD96C, 1,  0x22
HUEGAIN_COEF3_BYGAIN3,              0xD96D, 1,  0x22
HUEGAIN_COEF3_BYGAIN2,              0xD96E, 1,  0x22
HUEGAIN_COEF3_BYGAIN1,              0xD96F, 1,  0x22
LEV_PL_GAIN_VALUE,                  0xD600, 1,  0x40
